﻿Field=#~Integer~#~50|Field=Comment~String~Comment~100|Field=Description~String~Description~100|Field=Designator~String~Designator~100|Field=Footprint~String~Footprint~100|Field=LibRef~String~LibRef~100|Field=Quantity~Integer~Quantity~100|ReportField=Currency~<none>|ReportField=ProductionQuantity~1|ReportField=ProjectFileName~Team1.PrjPCB|ReportField=ProjectFullPath~U:\colber94\team1_project\Team1.PrjPCB|ReportField=Title~Bill of Materials For Project [Team1.PrjPCB] (No PCB Document Selected)|ReportField=ReportTime~5:13:54 PM|ReportField=ReportDate~11/30/2018|ReportField=ReportDateTime~11/30/2018 5:13:54 PM|ReportField=OutputName~Bill of Materials|ReportField=OutputType~BOM_PartType|ReportField=GeneratorName~BOM|ReportField=GeneratorDescription~Bill of Materials|ReportField=VariantName~None|ReportField=TotalQuantity~120|ReportField=TotalActualPrice~0|ReportField=TotalTargetPrice~0|ReportField=VersionControl_RevNumber~|ReportField=VersionControl_ProjFolderRevNumber~afe9e91a221ee158d37bcdebf1bbe46dd022f281|ReportField=Address1~|ReportField=Address2~|ReportField=Address3~|ReportField=Address4~|ReportField=Application_BuildNumber~|ReportField=ApprovedBy~|ReportField=Author~|ReportField=CheckedBy~|ReportField=CompanyName~|ReportField=CurrentDate~11/30/2018|ReportField=CurrentTime~5:13:51 PM|ReportField=Date~|ReportField=DocumentFullPathAndName~U:\colber94\team1_project\Persistent Elements.SchDoc|ReportField=DocumentName~Persistent Elements.SchDoc|ReportField=DocumentNumber~|ReportField=DrawnBy~|ReportField=Engineer~|ReportField=ImagePath~|ReportField=ModifiedDate~11/30/2018|ReportField=Organization~|ReportField=ProjectName~Team1.PrjPCB|ReportField=Revision~|ReportField=Rule~|ReportField=SheetNumber~|ReportField=SheetTotal~|ReportField=Time~|ReportField=Title~|ReportField=DataSourceFileName~Team1.PrjPCB|ReportField=DataSourceFullPath~U:\colber94\team1_project\Team1.PrjPCB|ReportField=PCBConfigurationName~Sources|ReportField=Item~|ReportField=ItemRevision~|ReportField=ItemAndRevision~|ReportField=ItemRevisionBase~|ReportField=ItemRevisionLevel1~|ReportField=ItemRevisionLevel2~|ReportField=ItemRevisionLevel1AndBase~|ReportField=ItemRevisionLevel2AndLevel1~
1|Audio Chip||||Audio Chip|1
2|Tiva_20|Tiva Protection 20 Pin Connector|||Tiva_20|1
3|Tiva_24|Tiva Protection 24 Pin Connector|||Tiva_24|1
4|WTV020||*1||WTV020|1
5|LCD Display||*2||LCD Display|1
6|Motor Servo|Servo Motor|B1, B2|RAD-0.4|Motor Servo|2
7|Generator Motor|Motor, General Kind|B2|RB5-10.5|Motor|1
8|Cap|Capacitor|C1, C2|RAD-0.3|Cap|2
9|Diode|Default Diode|D1, D2, D3|DSO-C2/X3.3|Diode|3
10|Bridge1|Full Wave Diode Bridge|D6|D-38|Bridge1|1
11|D Zener|Zener Diode|D7|DIODE-0.7|D Zener|1
12|Lamp LED1|Typical BLUE SiC LED|DS1|DSO-F2/D6.1|LED3|1
13|LCD Backlight - 3.2Vf|Typical BLUE SiC LED|DS2|DSO-F2/D6.1|LED3|1
14|Refrigerator LED|Typical BLUE SiC LED|DS3|DSO-F2/D6.1|LED3|1
15|LED1|Typical RED GaAs LED|DS4, DS5, DS6, DS7, DS8, DS9, DS10, DS11, DS12, DS13, DS14, DS15, DS16, DS17, DS18, DS19, DS20, DS21, DS22, DS23, GREEN LED STRIP, RED LED STRIP|LED-1|LED1|22
16|74xxx595|8-Bit Serial-Input/Serial or Prallel-Output Shift Register with Latched 3-State Outputs|GAME 1, U2, U3, U4, U5|DIP-16/X1.5|74xxx595|5
17|Inductor|Inductor|L1|C1005-0402|Inductor|1
18|Fan Motor|Motor, General Kind|M1|RB5-10.5|Motor|1
19|Blender Motor|Motor, General Kind|M2|RB5-10.5|Motor|1
20|MOSFET-N|N-Channel MOSFET|Q1, Q2, Q3, Q5, Q6|BCY-W3/H.8|MOSFET-N|5
21|MOSFET-P|P-Channel MOSFET|Q4|BCY-W3/H.8|MOSFET-P|1
22|2N7000|N-Channel Enhancement Mode Vertical DMOS FET|Q7, Q8, Q9, Q10, Q11|BCY-W3/D5|2N7000|5
23|IRLZ34N|HEXFET Power MOSFET|Q12, Q13, Q15|SFM-T3/A4.7V|IRLZ34N|3
24|Photo NPN|NPN Phototransistor|Q14|SFM-T2(3)/X1.6V|Photo NPN|1
25|Res1|Resistor|R1, R2, R3, R4, R5, R6, R7, R8, R9, R10, R12, R13, R14, R15, R16, R17, R18, R19, R20, R21, R22, R23, R24, R25, R26, R27, R28, R29, R30, R31, R32, R33, R34, R35, R36, R37, R38, R39, R40, R41, R42, R43, R44, R45, R46|AXIAL-0.3|Res1|45
26|RPot1|Potentiometer|R11|VR5|RPot1|1
27|Lamp Switch|Switch|S1|SPST-2|SW-PB|1
28|TV Switch|Switch|S2|SPST-2|SW-PB|1
29|Fan Switch|Switch|S3|SPST-2|SW-PB|1
30|Blender Switch|Switch|S4|SPST-2|SW-PB|1
31|Refrigerator Switch|Switch|S5|SPST-2|SW-PB|1
32|LM324AJ|Low-Power Quad Operational Amplifier|U1|DIP-14|LM324AJ|1
33|LM339AN|Quad Single-Supply Comparator|U6, U7|DIP-14/D19.7|LM339AN|2
34|US_Vaporizer||U*1||US_Vaporizer|1
35|PIR Sensor||U*2||PIR Sensor|1
36|Sharp GP2Y0A21YK0F||U*3||Sharp GP2Y0A21YK0F|1
